{
  "name": "ac_unit",
  "do": "",
  "dont": "",
  "tags": [
    "air conditioner",
    "cool",
    "cold",
    "chill",
    "snow",
    "congelation",
    "snowflake"
  ],
  "category": [
    "places"
  ],
  "type": "static"
}
