{
  "name": "add_ic_call",
  "do": "",
  "dont": "",
  "tags": [
    "add",
    "call",
    "contact",
    "device",
    "mobile",
    "phone",
    "plus"
  ],
  "category": [
    "communication"
  ],
  "type": "static"
}