{
  "name": "airline_seat_legroom_normal",
  "do": "",
  "dont": "",
  "tags": [
    "plane",
    "airplane",
    "chair",
    "standard",
    "basic"
  ],
  "category": [
    "notification"
  ],
  "type": "static"
}