{
  "name": "analytics",
  "do": "",
  "dont": "",
  "tags": [
    "Analytics",
    "analytics",
    "assessment",
    "bar",
    "bars",
    "chart",
    "data",
    "diagram",
    "graph",
    "infographic",
    "measure",
    "metrics",
    "statistics",
    "tracking"
  ],
  "category": [
    "action"
  ],
  "type": "static"
}