{
  "name": "arrow_forward_ios",
  "do": "",
  "dont": "",
  "tags": [
    "arrow",
    "arrows",
    "chevron",
    "direction",
    "forward",
    "ios",
    "next",
    "right"
  ],
  "category": [
    "navigation"
  ],
  "type": "static"
}