{
  "name": "assignment_ind",
  "do": "",
  "dont": "",
  "tags": [
    "face",
    "assignment",
    "person",
    "profile",
    "clipboard",
    "human",
    "people",
    "user",
    "account"
  ],
  "category": [
    "roles"
  ],
  "type": "static"
}