{
  "name": "calculate",
  "do": "",
  "dont": "",
  "tags": [
    "+",
    "-",
    "=",
    "account",
    "calculate",
    "count",
    "fiance",
    "math"
  ],
  "category": [
    "content"
  ],
  "type": "static"
}