{
  "name": "check_circle_outline",
  "do": "",
  "dont": "",
  "tags": [
    "check",
    "circle",
    "complete",
    "done",
    "finished",
    "outline"
  ],
  "category": [
    "action"
  ],
  "type": "static"
}