{
  "name": "child_friendly",
  "do": "",
  "dont": "",
  "tags": [
    "baby",
    "pram",
    "baby carriage",
    "stroller",
    "children",
    "cart"
  ],
  "category": [
    "places"
  ],
  "type": "static"
}