{
  "name": "contact_support",
  "do": "",
  "dont": "",
  "tags": [
    "alert",
    "announcement",
    "bubble",
    "help",
    "info",
    "information",
    "question mark",
    "speech",
    "support"
  ],
  "category": [
    "action"
  ],
  "type": "static"
}