{
  "name": "duo",
  "do": "",
  "dont": "",
  "tags": [
    "Duo",
    "call",
    "chat",
    "conference",
    "device",
    "video"
  ],
  "category": [
    "communication"
  ],
  "type": "static"
}