{
  "name": "emoji_transportation",
  "do": "",
  "dont": "",
  "tags": [
    "architecture",
    "automobile",
    "building",
    "car",
    "cars",
    "direction",
    "emoji",
    "estate",
    "maps",
    "place",
    "public",
    "real",
    "residence",
    "residential",
    "shelter",
    "transportation",
    "travel",
    "vehicle"
  ],
  "category": [
    "social"
  ],
  "type": "static"
}