{
  "name": "engineering",
  "do": "",
  "dont": "",
  "tags": [
    "body",
    "cogs",
    "cogwheel",
    "construction",
    "engineering",
    "fixing",
    "gears",
    "hat",
    "helmet",
    "human",
    "maintenance",
    "people",
    "person",
    "setting",
    "worker"
  ],
  "category": [
    "social"
  ],
  "type": "static"
}