{
  "name": "equalizer",
  "do": "",
  "dont": "",
  "tags": [
    "volume",
    "music",
    "static",
    "sound",
    "noise",
    "adjustment",
    "Equalizer"
  ],
  "category": [
    "av"
  ],
  "type": "static"
}