{
  "name": "explicit",
  "do": "",
  "dont": "",
  "tags": [
    "symbol",
    "character",
    "e",
    "letter",
    "lanuage",
    "Explicit",
    "alphabet",
    "text",
    "adult",
    "type",
    "content",
    "font"
  ],
  "category": [
    "av"
  ],
  "type": "static"
}