{
  "name": "forward",
  "do": "",
  "dont": "",
  "tags": [
    "mail",
    "arrow",
    "forward",
    "playback",
    "right",
    "message",
    "sent"
  ],
  "category": [
    "content"
  ],
  "type": "static"
}