{
  "name": "hearing",
  "do": "",
  "dont": "",
  "tags": [
    "accessible",
    "help",
    "Hearing",
    "impaired",
    "accessibility",
    "handicap",
    "sound",
    "hearing",
    "aid",
    "listen"
  ],
  "category": [
    "av"
  ],
  "type": "static"
}