{
  "name": "inbox",
  "do": "",
  "dont": "",
  "tags": [
    "incoming",
    "mail",
    "archive",
    "message",
    "inbox",
    "email"
  ],
  "category": [
    "content"
  ],
  "type": "static"
}