{
  "name": "line_style",
  "do": "",
  "dont": "",
  "tags": [
    "spacing",
    "line",
    "rule",
    "style",
    "dash",
    "dotted"
  ],
  "category": [
    "action"
  ],
  "type": "static"
}