{
  "name": "linear_scale",
  "do": "",
  "dont": "",
  "tags": [
    "slider",
    "linear",
    "measure",
    "Ui",
    "scale",
    "menu"
  ],
  "category": [
    "editor"
  ],
  "type": "static"
}