{
  "name": "link",
  "do": "",
  "dont": "",
  "tags": [
    "chain",
    "multimedia",
    "link",
    "connection",
    "links",
    "clip",
    "url",
    "linked"
  ],
  "category": [
    "content"
  ],
  "type": "static"
}