{
  "name": "local_pharmacy",
  "do": "",
  "dont": "",
  "tags": [
    "cross",
    "911",
    "emergency",
    "medicine",
    "hospital",
    "aid",
    "first"
  ],
  "category": [
    "maps"
  ],
  "type": "static"
}