{
  "name": "local_dining",
  "do": "",
  "dont": "",
  "tags": [
    "meal",
    "fork",
    "knife",
    "restuarant",
    "dining",
    "spoon",
    "eat",
    "food",
    "local"
  ],
  "category": [
    "maps"
  ],
  "type": "static"
}