{
  "name": "message",
  "do": "",
  "dont": "",
  "tags": [
    "Message",
    "bubble",
    "speech",
    "chat",
    "talk",
    "text"
  ],
  "category": [
    "communication"
  ],
  "type": "static"
}