{
  "name": "music_video",
  "do": "",
  "dont": "",
  "tags": [
    "tv",
    "watch",
    "Music",
    "recording",
    "screen",
    "band",
    "video"
  ],
  "category": [
    "av"
  ],
  "type": "static"
}