{
  "name": "open_in_browser",
  "do": "",
  "dont": "",
  "tags": [
    "new",
    "arrow",
    "browser",
    "box",
    "window",
    "open"
  ],
  "category": [
    "action"
  ],
  "type": "static"
}