{
  "name": "pan_tool",
  "do": "",
  "dont": "",
  "tags": [
    "move",
    "hands",
    "stop",
    "scan",
    "fingers",
    "pan",
    "human",
    "tool",
    "gesture",
    "hand"
  ],
  "category": [
    "action"
  ],
  "type": "static"
}