{
  "name": "pie_chart_outlined",
  "do": "",
  "dont": "",
  "tags": [
    "data",
    "infographic",
    "pie",
    "tracking",
    "bars",
    "graph",
    "analytics",
    "diagram",
    "bar",
    "measure",
    "metrics",
    "statistics",
    "chart"
  ],
  "category": [
    "editor"
  ],
  "type": "static"
}