{
  "name": "play_for_work",
  "do": "",
  "dont": "",
  "tags": [
    "play",
    "half",
    "arrow",
    "work",
    "google",
    "circle",
    "down"
  ],
  "category": [
    "action"
  ],
  "type": "static"
}