{
  "name": "pregnant_woman",
  "do": "",
  "dont": "",
  "tags": [
    "woman",
    "birth",
    "mom",
    "body",
    "people",
    "mother",
    "maternity",
    "person",
    "baby",
    "lady",
    "female",
    "human",
    "pregnant"
  ],
  "category": [
    "roles"
  ],
  "type": "static"
}