{
  "name": "query_builder",
  "do": "",
  "dont": "",
  "tags": [
    "hour",
    "query",
    "builder",
    "save",
    "clock",
    "time",
    "minute"
  ],
  "category": [
    "action"
  ],
  "type": "static"
}