{
  "name": "recent_actors",
  "do": "",
  "dont": "",
  "tags": [
    "Recent",
    "actors",
    "cards",
    "profile",
    "carousel",
    "human",
    "user",
    "card"
  ],
  "category": [
    "roles"
  ],
  "type": "static"
}