{
  "name": "replay_30",
  "do": "",
  "dont": "",
  "tags": [
    "number",
    "symbol",
    "controls",
    "music",
    "arrow",
    "Replay",
    "repeat",
    "arrows",
    "control",
    "video",
    "30",
    "digit"
  ],
  "category": [
    "av"
  ],
  "type": "static"
}