{
  "name": "rv_hookup",
  "do": "",
  "dont": "",
  "tags": [
    "recreational vehicle",
    "trailer",
    "motor vehicle",
    "motorhome",
    "campervan",
    "caravan",
    "camper trailer",
    "connection"
  ],
  "category": [
    "places"
  ],
  "type": "static"
}