{
  "name": "stars",
  "do": "",
  "dont": "",
  "tags": [
    "love",
    "star",
    "like",
    "rate",
    "rating",
    "circle",
    "favorite"
  ],
  "category": [
    "action"
  ],
  "type": "static"
}