{
  "name": "stop",
  "do": "",
  "dont": "",
  "tags": [
    "play",
    "controls",
    "music",
    "vide",
    "Stop",
    "arrow",
    "control"
  ],
  "category": [
    "av"
  ],
  "type": "static"
}