{
  "name": "system_update_alt",
  "do": "",
  "dont": "",
  "tags": [
    "instal",
    "system",
    "load",
    "system update",
    "web",
    "installation",
    "mobile",
    "cellphone",
    "update",
    "dowload",
    "cell",
    "device"
  ],
  "category": [
    "action"
  ],
  "type": "static"
}