{
  "name": "traffic",
  "do": "",
  "dont": "",
  "tags": [
    "light",
    "street",
    "map",
    "signal",
    "direction",
    "traffic"
  ],
  "category": [
    "maps"
  ],
  "type": "static"
}