{
  "name": "abstract_incomplete",
  "do": "<ul><li>Use this icon to represent an incomplete abstract resource or tool.</li></ul>",
  "dont": "<ul><li>n/a.</li></ul>",
  "tags": [
    "resource",
    "conceptual",
    "non-representational",
    "symbolic",
    "non-realistic"
  ],
  "category": "virtualization",
  "type": "static"
}