{
  "name": "arrow_rotate",
  "do": "<ul><li>Use it to represent content refreshing</li></ul>",
  "dont": "<ul><li>Don't use it for loading or installing</li></ul>",
  "tags": [
    "refresh",
    "restore",
    "recharge",
    "replenish"
  ],
  "category": "virtualization",
  "type": "animated"
}