{
  "name": "content_modified",
  "do": "<ul><li>Use it to indicate the user that a specific file has been modified.</li></ul>",
  "dont": "<ul><li>Don't use it to display writing.</li></ul>",
  "tags": [
    "changed",
    "altered",
    "modified",
    "composition",
    "file"
  ],
  "category": "editor",
  "type": "static"
}
