{
  "name": "neural_network",
  "do": "<ul><li>As a set of algorithms, modeled loosely after the human brain, that are designed to recognize patterns.</li></ul>",
  "dont": "<ul><li>Don't use it as AI, machine learning, or similar concepts since they have their own icon.</li></ul>",
  "tags": [
    "neurological",
    "net",
    "brain",
    "system",
    "chain",
    "circuit",
    "neurons"
  ],
  "category": "artificial intelligence",
  "type": "static"
}