{
  "name": "pod",
  "do": "<ul><li>To represent a group of containers.</li></ul>",
  "dont": "<ul><li>To represent a single container.</li></ul>",
  "tags": [
    "kubernetes",
    "pod",
    "containers"
  ],
  "category": "virtualization",
  "type": "static"
}
