{
  "name": "workload",
  "do": "<ul><li>To represent the amount of work to be done by someone or something.</li></ul>",
  "dont": "",
  "tags": [
    "kubernetes",
    "container",
    "workload",
    "work"
  ],
  "category": "virtualization",
  "type": "static"
}
